%YAML 1.1
%TAG !u! tag:unity3d.com,2011:
--- !u!114 &11400000
MonoBehaviour:
  m_ObjectHideFlags: 0
  m_PrefabParentObject: {fileID: 0}
  m_PrefabInternal: {fileID: 0}
  m_GameObject: {fileID: 0}
  m_Enabled: 1
  m_EditorHideFlags: 0
  m_Script: {fileID: 11500000, guid: cd4dfab898de19945a38afbd61d4a0e3, type: 3}
  m_Name: ChairStudent
  m_EditorClassIdentifier: 
  m_Sprite: {fileID: 21300000, guid: 3d8f40023a84ac144acc18293643e9ef, type: 3}
  m_Color: {r: 1, g: 1, b: 1, a: 1}
  m_Transform:
    e00: 1
    e01: 0
    e02: 0
    e03: 0
    e10: 0
    e11: 1
    e12: 0
    e13: 0
    e20: 0
    e21: 0
    e22: 1
    e23: 0
    e30: 0
    e31: 0
    e32: 0
    e33: 1
  m_InstancedGameObject: {fileID: 0}
  m_Flags: 1
  m_ColliderType: 1
  previewSprite: {fileID: 21300000, guid: 3d8f40023a84ac144acc18293643e9ef, type: 3}
  sprites:
  - {fileID: 21300000, guid: 3d8f40023a84ac144acc18293643e9ef, type: 3}
  - {fileID: 21300000, guid: bede5564fa3f9a447b446b3ee3b889b1, type: 3}
  - {fileID: 21300000, guid: d6e03c85720320348a1516ea0978fbd4, type: 3}
  - {fileID: 21300000, guid: 1b2fb94fb8d52b04ea14cf4e3384e142, type: 3}
  rotationIndex: 0
